%YAML 1.1
%TAG !u! tag:unity3d.com,2011:
--- !u!1 &2746305242276180129
GameObject:
  m_ObjectHideFlags: 0
  m_CorrespondingSourceObject: {fileID: 0}
  m_PrefabInstance: {fileID: 0}
  m_PrefabAsset: {fileID: 0}
  serializedVersion: 6
  m_Component:
  - component: {fileID: 2746305242276180135}
  - component: {fileID: 2746305242276180134}
  - component: {fileID: 2746305242276180133}
  - component: {fileID: 2746305242276180132}
  - component: {fileID: 2746305242276180131}
  - component: {fileID: 2746305242276180130}
  - component: {fileID: 7797959760527558387}
  m_Layer: 0
  m_Name: Aro
  m_TagString: Untagged
  m_Icon: {fileID: 0}
  m_NavMeshLayer: 0
  m_StaticEditorFlags: 0
  m_IsActive: 1
--- !u!4 &2746305242276180135
Transform:
  m_ObjectHideFlags: 0
  m_CorrespondingSourceObject: {fileID: 0}
  m_PrefabInstance: {fileID: 0}
  m_PrefabAsset: {fileID: 0}
  m_GameObject: {fileID: 2746305242276180129}
  m_LocalRotation: {x: 0.7071068, y: 0, z: 0, w: 0.7071068}
  m_LocalPosition: {x: 0, y: 0, z: 0}
  m_LocalScale: {x: 1, y: 1, z: 1}
  m_ConstrainProportionsScale: 0
  m_Children: []
  m_Father: {fileID: 0}
  m_RootOrder: 0
  m_LocalEulerAnglesHint: {x: 90, y: 0, z: 0}
--- !u!114 &2746305242276180134
MonoBehaviour:
  m_ObjectHideFlags: 0
  m_CorrespondingSourceObject: {fileID: 0}
  m_PrefabInstance: {fileID: 0}
  m_PrefabAsset: {fileID: 0}
  m_GameObject: {fileID: 2746305242276180129}
  m_Enabled: 1
  m_EditorHideFlags: 0
  m_Script: {fileID: 11500000, guid: 8233d90336aea43098adf6dbabd606a2, type: 3}
  m_Name: 
  m_EditorClassIdentifier: 
  m_MeshFormatVersion: 2
  m_Faces:
  - m_Indexes: 000000000100000002000000010000000300000002000000
    m_SmoothingGroup: 1
    m_Uv:
      m_UseWorldSpace: 0
      m_FlipU: 0
      m_FlipV: 0
      m_SwapUV: 0
      m_Fill: 1
      m_Scale: {x: 1, y: 1}
      m_Offset: {x: 0, y: 0}
      m_Rotation: 0
      m_Anchor: 9
    m_Material: {fileID: 0}
    m_SubmeshIndex: 0
    m_ManualUV: 0
    elementGroup: -1
    m_TextureGroup: -1
  - m_Indexes: 040000000500000006000000050000000700000006000000
    m_SmoothingGroup: 1
    m_Uv:
      m_UseWorldSpace: 0
      m_FlipU: 0
      m_FlipV: 0
      m_SwapUV: 0
      m_Fill: 1
      m_Scale: {x: 1, y: 1}
      m_Offset: {x: 0, y: 0}
      m_Rotation: 0
      m_Anchor: 9
    m_Material: {fileID: 0}
    m_SubmeshIndex: 0
    m_ManualUV: 0
    elementGroup: -1
    m_TextureGroup: -1
  - m_Indexes: 08000000090000000a000000090000000b0000000a000000
    m_SmoothingGroup: 1
    m_Uv:
      m_UseWorldSpace: 0
      m_FlipU: 0
      m_FlipV: 0
      m_SwapUV: 0
      m_Fill: 1
      m_Scale: {x: 1, y: 1}
      m_Offset: {x: 0, y: 0}
      m_Rotation: 0
      m_Anchor: 9
    m_Material: {fileID: 0}
    m_SubmeshIndex: 0
    m_ManualUV: 0
    elementGroup: -1
    m_TextureGroup: -1
  - m_Indexes: 0c0000000d0000000e0000000d0000000f0000000e000000
    m_SmoothingGroup: 1
    m_Uv:
      m_UseWorldSpace: 0
      m_FlipU: 0
      m_FlipV: 0
      m_SwapUV: 0
      m_Fill: 1
      m_Scale: {x: 1, y: 1}
      m_Offset: {x: 0, y: 0}
      m_Rotation: 0
      m_Anchor: 9
    m_Material: {fileID: 0}
    m_SubmeshIndex: 0
    m_ManualUV: 0
    elementGroup: -1
    m_TextureGroup: -1
  - m_Indexes: 100000001100000012000000110000001300000012000000
    m_SmoothingGroup: 1
    m_Uv:
      m_UseWorldSpace: 0
      m_FlipU: 0
      m_FlipV: 0
      m_SwapUV: 0
      m_Fill: 1
      m_Scale: {x: 1, y: 1}
      m_Offset: {x: 0, y: 0}
      m_Rotation: 0
      m_Anchor: 9
    m_Material: {fileID: 0}
    m_SubmeshIndex: 0
    m_ManualUV: 0
    elementGroup: -1
    m_TextureGroup: -1
  - m_Indexes: 140000001500000016000000150000001700000016000000
    m_SmoothingGroup: 1
    m_Uv:
      m_UseWorldSpace: 0
      m_FlipU: 0
      m_FlipV: 0
      m_SwapUV: 0
      m_Fill: 1
      m_Scale: {x: 1, y: 1}
      m_Offset: {x: 0, y: 0}
      m_Rotation: 0
      m_Anchor: 9
    m_Material: {fileID: 0}
    m_SubmeshIndex: 0
    m_ManualUV: 0
    elementGroup: -1
    m_TextureGroup: -1
  - m_Indexes: 18000000190000001a000000190000001b0000001a000000
    m_SmoothingGroup: 1
    m_Uv:
      m_UseWorldSpace: 0
      m_FlipU: 0
      m_FlipV: 0
      m_SwapUV: 0
      m_Fill: 1
      m_Scale: {x: 1, y: 1}
      m_Offset: {x: 0, y: 0}
      m_Rotation: 0
      m_Anchor: 9
    m_Material: {fileID: 0}
    m_SubmeshIndex: 0
    m_ManualUV: 0
    elementGroup: -1
    m_TextureGroup: -1
  - m_Indexes: 1c0000001d0000001e0000001d0000001f0000001e000000
    m_SmoothingGroup: 1
    m_Uv:
      m_UseWorldSpace: 0
      m_FlipU: 0
      m_FlipV: 0
      m_SwapUV: 0
      m_Fill: 1
      m_Scale: {x: 1, y: 1}
      m_Offset: {x: 0, y: 0}
      m_Rotation: 0
      m_Anchor: 9
    m_Material: {fileID: 0}
    m_SubmeshIndex: 0
    m_ManualUV: 0
    elementGroup: -1
    m_TextureGroup: -1
  - m_Indexes: 200000002100000022000000210000002300000022000000
    m_SmoothingGroup: 1
    m_Uv:
      m_UseWorldSpace: 0
      m_FlipU: 0
      m_FlipV: 0
      m_SwapUV: 0
      m_Fill: 1
      m_Scale: {x: 1, y: 1}
      m_Offset: {x: 0, y: 0}
      m_Rotation: 0
      m_Anchor: 9
    m_Material: {fileID: 0}
    m_SubmeshIndex: 0
    m_ManualUV: 0
    elementGroup: -1
    m_TextureGroup: -1
  - m_Indexes: 240000002500000026000000250000002700000026000000
    m_SmoothingGroup: 1
    m_Uv:
      m_UseWorldSpace: 0
      m_FlipU: 0
      m_FlipV: 0
      m_SwapUV: 0
      m_Fill: 1
      m_Scale: {x: 1, y: 1}
      m_Offset: {x: 0, y: 0}
      m_Rotation: 0
      m_Anchor: 9
    m_Material: {fileID: 0}
    m_SubmeshIndex: 0
    m_ManualUV: 0
    elementGroup: -1
    m_TextureGroup: -1
  - m_Indexes: 28000000290000002a000000290000002b0000002a000000
    m_SmoothingGroup: 1
    m_Uv:
      m_UseWorldSpace: 0
      m_FlipU: 0
      m_FlipV: 0
      m_SwapUV: 0
      m_Fill: 1
      m_Scale: {x: 1, y: 1}
      m_Offset: {x: 0, y: 0}
      m_Rotation: 0
      m_Anchor: 9
    m_Material: {fileID: 0}
    m_SubmeshIndex: 0
    m_ManualUV: 0
    elementGroup: -1
    m_TextureGroup: -1
  - m_Indexes: 2c0000002d0000002e0000002d0000002f0000002e000000
    m_SmoothingGroup: 1
    m_Uv:
      m_UseWorldSpace: 0
      m_FlipU: 0
      m_FlipV: 0
      m_SwapUV: 0
      m_Fill: 1
      m_Scale: {x: 1, y: 1}
      m_Offset: {x: 0, y: 0}
      m_Rotation: 0
      m_Anchor: 9
    m_Material: {fileID: 0}
    m_SubmeshIndex: 0
    m_ManualUV: 0
    elementGroup: -1
    m_TextureGroup: -1
  - m_Indexes: 300000003100000032000000310000003300000032000000
    m_SmoothingGroup: 0
    m_Uv:
      m_UseWorldSpace: 0
      m_FlipU: 0
      m_FlipV: 0
      m_SwapUV: 0
      m_Fill: 1
      m_Scale: {x: 1, y: 1}
      m_Offset: {x: 0, y: 0}
      m_Rotation: 0
      m_Anchor: 9
    m_Material: {fileID: 0}
    m_SubmeshIndex: 0
    m_ManualUV: 0
    elementGroup: -1
    m_TextureGroup: -1
  - m_Indexes: 340000003500000036000000350000003700000036000000
    m_SmoothingGroup: 0
    m_Uv:
      m_UseWorldSpace: 0
      m_FlipU: 0
      m_FlipV: 0
      m_SwapUV: 0
      m_Fill: 1
      m_Scale: {x: 1, y: 1}
      m_Offset: {x: 0, y: 0}
      m_Rotation: 0
      m_Anchor: 9
    m_Material: {fileID: 0}
    m_SubmeshIndex: 0
    m_ManualUV: 0
    elementGroup: -1
    m_TextureGroup: -1
  - m_Indexes: 38000000390000003a000000390000003b0000003a000000
    m_SmoothingGroup: 0
    m_Uv:
      m_UseWorldSpace: 0
      m_FlipU: 0
      m_FlipV: 0
      m_SwapUV: 0
      m_Fill: 1
      m_Scale: {x: 1, y: 1}
      m_Offset: {x: 0, y: 0}
      m_Rotation: 0
      m_Anchor: 9
    m_Material: {fileID: 0}
    m_SubmeshIndex: 0
    m_ManualUV: 0
    elementGroup: -1
    m_TextureGroup: -1
  - m_Indexes: 3c0000003d0000003e0000003d0000003f0000003e000000
    m_SmoothingGroup: 0
    m_Uv:
      m_UseWorldSpace: 0
      m_FlipU: 0
      m_FlipV: 0
      m_SwapUV: 0
      m_Fill: 1
      m_Scale: {x: 1, y: 1}
      m_Offset: {x: 0, y: 0}
      m_Rotation: 0
      m_Anchor: 9
    m_Material: {fileID: 0}
    m_SubmeshIndex: 0
    m_ManualUV: 0
    elementGroup: -1
    m_TextureGroup: -1
  - m_Indexes: 400000004100000042000000410000004300000042000000
    m_SmoothingGroup: 0
    m_Uv:
      m_UseWorldSpace: 0
      m_FlipU: 0
      m_FlipV: 0
      m_SwapUV: 0
      m_Fill: 1
      m_Scale: {x: 1, y: 1}
      m_Offset: {x: 0, y: 0}
      m_Rotation: 0
      m_Anchor: 9
    m_Material: {fileID: 0}
    m_SubmeshIndex: 0
    m_ManualUV: 0
    elementGroup: -1
    m_TextureGroup: -1
  - m_Indexes: 440000004500000046000000450000004700000046000000
    m_SmoothingGroup: 0
    m_Uv:
      m_UseWorldSpace: 0
      m_FlipU: 0
      m_FlipV: 0
      m_SwapUV: 0
      m_Fill: 1
      m_Scale: {x: 1, y: 1}
      m_Offset: {x: 0, y: 0}
      m_Rotation: 0
      m_Anchor: 9
    m_Material: {fileID: 0}
    m_SubmeshIndex: 0
    m_ManualUV: 0
    elementGroup: -1
    m_TextureGroup: -1
  - m_Indexes: 48000000490000004a000000490000004b0000004a000000
    m_SmoothingGroup: 0
    m_Uv:
      m_UseWorldSpace: 0
      m_FlipU: 0
      m_FlipV: 0
      m_SwapUV: 0
      m_Fill: 1
      m_Scale: {x: 1, y: 1}
      m_Offset: {x: 0, y: 0}
      m_Rotation: 0
      m_Anchor: 9
    m_Material: {fileID: 0}
    m_SubmeshIndex: 0
    m_ManualUV: 0
    elementGroup: -1
    m_TextureGroup: -1
  - m_Indexes: 4c0000004d0000004e0000004d0000004f0000004e000000
    m_SmoothingGroup: 0
    m_Uv:
      m_UseWorldSpace: 0
      m_FlipU: 0
      m_FlipV: 0
      m_SwapUV: 0
      m_Fill: 1
      m_Scale: {x: 1, y: 1}
      m_Offset: {x: 0, y: 0}
      m_Rotation: 0
      m_Anchor: 9
    m_Material: {fileID: 0}
    m_SubmeshIndex: 0
    m_ManualUV: 0
    elementGroup: -1
    m_TextureGroup: -1
  - m_Indexes: 500000005100000052000000510000005300000052000000
    m_SmoothingGroup: 0
    m_Uv:
      m_UseWorldSpace: 0
      m_FlipU: 0
      m_FlipV: 0
      m_SwapUV: 0
      m_Fill: 1
      m_Scale: {x: 1, y: 1}
      m_Offset: {x: 0, y: 0}
      m_Rotation: 0
      m_Anchor: 9
    m_Material: {fileID: 0}
    m_SubmeshIndex: 0
    m_ManualUV: 0
    elementGroup: -1
    m_TextureGroup: -1
  - m_Indexes: 540000005500000056000000550000005700000056000000
    m_SmoothingGroup: 0
    m_Uv:
      m_UseWorldSpace: 0
      m_FlipU: 0
      m_FlipV: 0
      m_SwapUV: 0
      m_Fill: 1
      m_Scale: {x: 1, y: 1}
      m_Offset: {x: 0, y: 0}
      m_Rotation: 0
      m_Anchor: 9
    m_Material: {fileID: 0}
    m_SubmeshIndex: 0
    m_ManualUV: 0
    elementGroup: -1
    m_TextureGroup: -1
  - m_Indexes: 58000000590000005a000000590000005b0000005a000000
    m_SmoothingGroup: 0
    m_Uv:
      m_UseWorldSpace: 0
      m_FlipU: 0
      m_FlipV: 0
      m_SwapUV: 0
      m_Fill: 1
      m_Scale: {x: 1, y: 1}
      m_Offset: {x: 0, y: 0}
      m_Rotation: 0
      m_Anchor: 9
    m_Material: {fileID: 0}
    m_SubmeshIndex: 0
    m_ManualUV: 0
    elementGroup: -1
    m_TextureGroup: -1
  - m_Indexes: 5c0000005d0000005e0000005d0000005f0000005e000000
    m_SmoothingGroup: 0
    m_Uv:
      m_UseWorldSpace: 0
      m_FlipU: 0
      m_FlipV: 0
      m_SwapUV: 0
      m_Fill: 1
      m_Scale: {x: 1, y: 1}
      m_Offset: {x: 0, y: 0}
      m_Rotation: 0
      m_Anchor: 9
    m_Material: {fileID: 0}
    m_SubmeshIndex: 0
    m_ManualUV: 0
    elementGroup: -1
    m_TextureGroup: -1
  m_SharedVertices:
  - m_Vertices: 00000000090000003100000038000000
  - m_Vertices: 01000000280000003000000059000000
  - m_Vertices: 020000000b000000340000003d000000
  - m_Vertices: 030000002a000000350000005c000000
  - m_Vertices: 040000002d000000320000005b000000
  - m_Vertices: 050000000c000000330000003a000000
  - m_Vertices: 060000002f000000370000005e000000
  - m_Vertices: 070000000e000000360000003f000000
  - m_Vertices: 08000000110000003900000040000000
  - m_Vertices: 0a000000130000003c00000045000000
  - m_Vertices: 0d000000140000003b00000042000000
  - m_Vertices: 0f000000160000003e00000047000000
  - m_Vertices: 10000000190000004100000048000000
  - m_Vertices: 120000001b000000440000004d000000
  - m_Vertices: 150000001c000000430000004a000000
  - m_Vertices: 170000001e000000460000004f000000
  - m_Vertices: 18000000210000004900000050000000
  - m_Vertices: 1a000000230000004c00000055000000
  - m_Vertices: 1d000000240000004b00000052000000
  - m_Vertices: 1f000000260000004e00000057000000
  - m_Vertices: 20000000290000005100000058000000
  - m_Vertices: 220000002b000000540000005d000000
  - m_Vertices: 250000002c000000530000005a000000
  - m_Vertices: 270000002e000000560000005f000000
  m_SharedTextures: []
  m_Positions:
  - {x: 5.7690306, y: -0.9777479, z: -0.48320007}
  - {x: 7.6920414, y: -0.9777479, z: -3.6066437}
  - {x: 5.7690306, y: 0, z: -0.48320007}
  - {x: 7.6920414, y: 0, z: -3.6066437}
  - {x: 7.2720413, y: -0.9777479, z: -3.6066437}
  - {x: 5.569063, y: -0.9777479, z: -0.85254145}
  - {x: 7.2720413, y: 0, z: -3.6066437}
  - {x: 5.569063, y: 0, z: -0.85254145}
  - {x: 1.9230087, y: -0.9777479, z: -0.4832003}
  - {x: 5.7690306, y: -0.9777479, z: -0.48320007}
  - {x: 1.9230087, y: 0, z: -0.4832003}
  - {x: 5.7690306, y: 0, z: -0.48320007}
  - {x: 5.569063, y: -0.9777479, z: -0.85254145}
  - {x: 2.1229758, y: -0.9777479, z: -0.8525417}
  - {x: 5.569063, y: 0, z: -0.85254145}
  - {x: 2.1229758, y: 0, z: -0.8525417}
  - {x: -0.0000019073486, y: -0.9777479, z: -3.606644}
  - {x: 1.9230087, y: -0.9777479, z: -0.4832003}
  - {x: -0.0000019073486, y: 0, z: -3.606644}
  - {x: 1.9230087, y: 0, z: -0.4832003}
  - {x: 2.1229758, y: -0.9777479, z: -0.8525417}
  - {x: 0.41999817, y: -0.9777479, z: -3.606644}
  - {x: 2.1229758, y: 0, z: -0.8525417}
  - {x: 0.41999817, y: 0, z: -3.606644}
  - {x: 1.9230093, y: -0.9777479, z: -6.7300873}
  - {x: -0.0000019073486, y: -0.9777479, z: -3.606644}
  - {x: 1.9230093, y: 0, z: -6.7300873}
  - {x: -0.0000019073486, y: 0, z: -3.606644}
  - {x: 0.41999817, y: -0.9777479, z: -3.606644}
  - {x: 2.1229763, y: -0.9777479, z: -6.360746}
  - {x: 0.41999817, y: 0, z: -3.606644}
  - {x: 2.1229763, y: 0, z: -6.360746}
  - {x: 5.76903, y: -0.9777479, z: -6.7300873}
  - {x: 1.9230093, y: -0.9777479, z: -6.7300873}
  - {x: 5.76903, y: 0, z: -6.7300873}
  - {x: 1.9230093, y: 0, z: -6.7300873}
  - {x: 2.1229763, y: -0.9777479, z: -6.360746}
  - {x: 5.569063, y: -0.9777479, z: -6.360746}
  - {x: 2.1229763, y: 0, z: -6.360746}
  - {x: 5.569063, y: 0, z: -6.360746}
  - {x: 7.6920414, y: -0.9777479, z: -3.6066437}
  - {x: 5.76903, y: -0.9777479, z: -6.7300873}
  - {x: 7.6920414, y: 0, z: -3.6066437}
  - {x: 5.76903, y: 0, z: -6.7300873}
  - {x: 5.569063, y: -0.9777479, z: -6.360746}
  - {x: 7.2720413, y: -0.9777479, z: -3.6066437}
  - {x: 5.569063, y: 0, z: -6.360746}
  - {x: 7.2720413, y: 0, z: -3.6066437}
  - {x: 7.6920414, y: -0.9777479, z: -3.6066437}
  - {x: 5.7690306, y: -0.9777479, z: -0.48320007}
  - {x: 7.2720413, y: -0.9777479, z: -3.6066437}
  - {x: 5.569063, y: -0.9777479, z: -0.85254145}
  - {x: 5.7690306, y: 0, z: -0.48320007}
  - {x: 7.6920414, y: 0, z: -3.6066437}
  - {x: 5.569063, y: 0, z: -0.85254145}
  - {x: 7.2720413, y: 0, z: -3.6066437}
  - {x: 5.7690306, y: -0.9777479, z: -0.48320007}
  - {x: 1.9230087, y: -0.9777479, z: -0.4832003}
  - {x: 5.569063, y: -0.9777479, z: -0.85254145}
  - {x: 2.1229758, y: -0.9777479, z: -0.8525417}
  - {x: 1.9230087, y: 0, z: -0.4832003}
  - {x: 5.7690306, y: 0, z: -0.48320007}
  - {x: 2.1229758, y: 0, z: -0.8525417}
  - {x: 5.569063, y: 0, z: -0.85254145}
  - {x: 1.9230087, y: -0.9777479, z: -0.4832003}
  - {x: -0.0000019073486, y: -0.9777479, z: -3.606644}
  - {x: 2.1229758, y: -0.9777479, z: -0.8525417}
  - {x: 0.41999817, y: -0.9777479, z: -3.606644}
  - {x: -0.0000019073486, y: 0, z: -3.606644}
  - {x: 1.9230087, y: 0, z: -0.4832003}
  - {x: 0.41999817, y: 0, z: -3.606644}
  - {x: 2.1229758, y: 0, z: -0.8525417}
  - {x: -0.0000019073486, y: -0.9777479, z: -3.606644}
  - {x: 1.9230093, y: -0.9777479, z: -6.7300873}
  - {x: 0.41999817, y: -0.9777479, z: -3.606644}
  - {x: 2.1229763, y: -0.9777479, z: -6.360746}
  - {x: 1.9230093, y: 0, z: -6.7300873}
  - {x: -0.0000019073486, y: 0, z: -3.606644}
  - {x: 2.1229763, y: 0, z: -6.360746}
  - {x: 0.41999817, y: 0, z: -3.606644}
  - {x: 1.9230093, y: -0.9777479, z: -6.7300873}
  - {x: 5.76903, y: -0.9777479, z: -6.7300873}
  - {x: 2.1229763, y: -0.9777479, z: -6.360746}
  - {x: 5.569063, y: -0.9777479, z: -6.360746}
  - {x: 5.76903, y: 0, z: -6.7300873}
  - {x: 1.9230093, y: 0, z: -6.7300873}
  - {x: 5.569063, y: 0, z: -6.360746}
  - {x: 2.1229763, y: 0, z: -6.360746}
  - {x: 5.76903, y: -0.9777479, z: -6.7300873}
  - {x: 7.6920414, y: -0.9777479, z: -3.6066437}
  - {x: 5.569063, y: -0.9777479, z: -6.360746}
  - {x: 7.2720413, y: -0.9777479, z: -3.6066437}
  - {x: 7.6920414, y: 0, z: -3.6066437}
  - {x: 5.76903, y: 0, z: -6.7300873}
  - {x: 7.2720413, y: 0, z: -3.6066437}
  - {x: 5.569063, y: 0, z: -6.360746}
  m_Textures0:
  - {x: -3.4360201, y: -0.9777479}
  - {x: -7.103972, y: -0.9777479}
  - {x: -3.4360201, y: 0}
  - {x: -7.103972, y: 0}
  - {x: 6.8920894, y: -0.9777479}
  - {x: 3.6540015, y: -0.9777479}
  - {x: 6.8920894, y: 0}
  - {x: 3.6540015, y: 0}
  - {x: -1.9230087, y: -0.9777479}
  - {x: -5.7690306, y: -0.9777479}
  - {x: -1.9230087, y: 0}
  - {x: -5.7690306, y: 0}
  - {x: 5.569063, y: -0.9777479}
  - {x: 2.1229758, y: -0.9777479}
  - {x: 5.569063, y: 0}
  - {x: 2.1229758, y: 0}
  - {x: 3.071238, y: -0.9777479}
  - {x: -0.5967137, y: -0.9777479}
  - {x: 3.071238, y: 0}
  - {x: -0.5967137, y: 0}
  - {x: 0.39140186, y: -0.9777479}
  - {x: -2.846686, y: -0.9777479}
  - {x: 0.39140186, y: 0}
  - {x: -2.846686, y: 0}
  - {x: 6.7391877, y: -0.9777479}
  - {x: 3.0712357, y: -0.9777479}
  - {x: 6.7391877, y: 0}
  - {x: 3.0712357, y: 0}
  - {x: -3.2884572, y: -0.9777479}
  - {x: -6.526545, y: -0.9777479}
  - {x: -3.2884572, y: 0}
  - {x: -6.526545, y: 0}
  - {x: 5.76903, y: -0.9777479}
  - {x: 1.9230093, y: -0.9777479}
  - {x: 5.76903, y: 0}
  - {x: 1.9230093, y: 0}
  - {x: -2.1229763, y: -0.9777479}
  - {x: -5.569063, y: -0.9777479}
  - {x: -2.1229763, y: 0}
  - {x: -5.569063, y: 0}
  - {x: 0.9614994, y: -0.9777479}
  - {x: -2.7064526, y: -0.9777479}
  - {x: 0.9614994, y: 0}
  - {x: -2.7064526, y: 0}
  - {x: 2.4811409, y: -0.9777479}
  - {x: -0.75694704, y: -0.9777479}
  - {x: 2.4811409, y: 0}
  - {x: -0.75694704, y: 0}
  - {x: -7.6920414, y: -3.6066437}
  - {x: -5.7690306, y: -0.48320007}
  - {x: -7.2720413, y: -3.6066437}
  - {x: -5.569063, y: -0.85254145}
  - {x: 5.7690306, y: -0.48320007}
  - {x: 7.6920414, y: -3.6066437}
  - {x: 5.569063, y: -0.85254145}
  - {x: 7.2720413, y: -3.6066437}
  - {x: -5.7690306, y: -0.48320007}
  - {x: -1.9230087, y: -0.4832003}
  - {x: -5.569063, y: -0.85254145}
  - {x: -2.1229758, y: -0.8525417}
  - {x: 1.9230087, y: -0.4832003}
  - {x: 5.7690306, y: -0.48320007}
  - {x: 2.1229758, y: -0.8525417}
  - {x: 5.569063, y: -0.85254145}
  - {x: -1.9230087, y: -0.4832003}
  - {x: 0.0000019073486, y: -3.606644}
  - {x: -2.1229758, y: -0.8525417}
  - {x: -0.41999817, y: -3.606644}
  - {x: -0.0000019073486, y: -3.606644}
  - {x: 1.9230087, y: -0.4832003}
  - {x: 0.41999817, y: -3.606644}
  - {x: 2.1229758, y: -0.8525417}
  - {x: 0.0000019073486, y: -3.606644}
  - {x: -1.9230093, y: -6.7300873}
  - {x: -0.41999817, y: -3.606644}
  - {x: -2.1229763, y: -6.360746}
  - {x: 1.9230093, y: -6.7300873}
  - {x: -0.0000019073486, y: -3.606644}
  - {x: 2.1229763, y: -6.360746}
  - {x: 0.41999817, y: -3.606644}
  - {x: -1.9230093, y: -6.7300873}
  - {x: -5.76903, y: -6.7300873}
  - {x: -2.1229763, y: -6.360746}
  - {x: -5.569063, y: -6.360746}
  - {x: 5.76903, y: -6.7300873}
  - {x: 1.9230093, y: -6.7300873}
  - {x: 5.569063, y: -6.360746}
  - {x: 2.1229763, y: -6.360746}
  - {x: -5.76903, y: -6.7300873}
  - {x: -7.6920414, y: -3.6066437}
  - {x: -5.569063, y: -6.360746}
  - {x: -7.2720413, y: -3.6066437}
  - {x: 7.6920414, y: -3.6066437}
  - {x: 5.76903, y: -6.7300873}
  - {x: 7.2720413, y: -3.6066437}
  - {x: 5.569063, y: -6.360746}
  m_Textures2: []
  m_Textures3: []
  m_Tangents:
  - {x: -0.87300456, y: 0, z: 0.4877121, w: -1}
  - {x: 0.00000006999549, y: 0, z: 1, w: -1}
  - {x: -0.87300456, y: 0, z: 0.4877121, w: -1}
  - {x: 0.00000006999549, y: 0, z: 1, w: -1}
  - {x: 0, y: 0, z: -1, w: -1}
  - {x: 0.873476, y: 0, z: -0.48686704, w: -1}
  - {x: 0, y: 0, z: -1, w: -1}
  - {x: 0.873476, y: 0, z: -0.48686704, w: -1}
  - {x: -0.87300444, y: 0, z: -0.48771223, w: -1}
  - {x: -0.87300456, y: 0, z: 0.48771214, w: -1}
  - {x: -0.87300444, y: 0, z: -0.48771223, w: -1}
  - {x: -0.87300456, y: 0, z: 0.48771214, w: -1}
  - {x: 0.873476, y: 0, z: -0.48686707, w: -1}
  - {x: 0.873476, y: 0, z: 0.4868671, w: -1}
  - {x: 0.873476, y: 0, z: -0.48686707, w: -1}
  - {x: 0.873476, y: 0, z: 0.4868671, w: -1}
  - {x: 0.00000006999549, y: 0, z: -1, w: -1}
  - {x: -0.8730045, y: 0, z: -0.48771223, w: -1}
  - {x: 0.00000006999549, y: 0, z: -1, w: -1}
  - {x: -0.8730045, y: 0, z: -0.48771223, w: -1}
  - {x: 0.873476, y: 0, z: 0.48686716, w: -1}
  - {x: -0.000000070079125, y: 0, z: 1, w: -1}
  - {x: 0.873476, y: 0, z: 0.48686716, w: -1}
  - {x: -0.000000070079125, y: 0, z: 1, w: -1}
  - {x: 0.87300456, y: 0, z: -0.48771206, w: -1}
  - {x: 0.00000006999549, y: 0, z: -1, w: -1}
  - {x: 0.87300456, y: 0, z: -0.48771206, w: -1}
  - {x: 0.00000006999549, y: 0, z: -1, w: -1}
  - {x: -0.000000070079125, y: 0, z: 1, w: -1}
  - {x: -0.873476, y: 0, z: 0.48686707, w: -1}
  - {x: -0.000000070079125, y: 0, z: 1, w: -1}
  - {x: -0.873476, y: 0, z: 0.48686707, w: -1}
  - {x: 0.87300456, y: 0, z: 0.4877121, w: -1}
  - {x: 0.87300456, y: 0, z: -0.4877121, w: -1}
  - {x: 0.87300456, y: 0, z: 0.4877121, w: -1}
  - {x: 0.87300456, y: 0, z: -0.4877121, w: -1}
  - {x: -0.873476, y: 0, z: 0.4868671, w: -1}
  - {x: -0.873476, y: 0, z: -0.4868671, w: -1}
  - {x: -0.873476, y: 0, z: 0.4868671, w: -1}
  - {x: -0.873476, y: 0, z: -0.4868671, w: -1}
  - {x: 0, y: 0, z: 1, w: -1}
  - {x: 0.87300456, y: 0, z: 0.48771206, w: -1}
  - {x: 0, y: 0, z: 1, w: -1}
  - {x: 0.87300456, y: 0, z: 0.48771206, w: -1}
  - {x: -0.873476, y: 0, z: -0.48686707, w: -1}
  - {x: 0, y: 0, z: -1, w: -1}
  - {x: -0.873476, y: 0, z: -0.48686707, w: -1}
  - {x: 0, y: 0, z: -1, w: -1}
  - {x: -1, y: 0, z: 0, w: -1}
  - {x: -1, y: 0, z: 0, w: -1}
  - {x: -1, y: 0, z: 0, w: -1}
  - {x: -1, y: 0, z: 0, w: -1}
  - {x: 1, y: 0, z: 0, w: -1}
  - {x: 1, y: 0, z: 0, w: -1}
  - {x: 1, y: 0, z: 0, w: -1}
  - {x: 1, y: 0, z: 0, w: -1}
  - {x: -1, y: 0, z: 0, w: -1}
  - {x: -1, y: 0, z: 0, w: -1}
  - {x: -1, y: 0, z: 0, w: -1}
  - {x: -1, y: 0, z: 0, w: -1}
  - {x: 1, y: 0, z: 0, w: -1}
  - {x: 1, y: 0, z: 0, w: -1}
  - {x: 1, y: 0, z: 0, w: -1}
  - {x: 1, y: 0, z: 0, w: -1}
  - {x: -1, y: 0, z: 0, w: -1}
  - {x: -1, y: 0, z: 0, w: -1}
  - {x: -1, y: 0, z: 0, w: -1}
  - {x: -1, y: 0, z: 0, w: -1}
  - {x: 1, y: 0, z: 0, w: -1}
  - {x: 1, y: 0, z: 0, w: -1}
  - {x: 1, y: 0, z: 0, w: -1}
  - {x: 1, y: 0, z: 0, w: -1}
  - {x: -1, y: 0, z: 0, w: -1}
  - {x: -1, y: 0, z: 0, w: -1}
  - {x: -1, y: 0, z: 0, w: -1}
  - {x: -1, y: 0, z: 0, w: -1}
  - {x: 1, y: 0, z: 0, w: -1}
  - {x: 1, y: 0, z: 0, w: -1}
  - {x: 1, y: 0, z: 0, w: -1}
  - {x: 1, y: 0, z: 0, w: -1}
  - {x: -1, y: 0, z: 0, w: -1}
  - {x: -1, y: 0, z: 0, w: -1}
  - {x: -1, y: 0, z: 0, w: -1}
  - {x: -1, y: 0, z: 0, w: -1}
  - {x: 1, y: 0, z: 0, w: -1}
  - {x: 1, y: 0, z: 0, w: -1}
  - {x: 1, y: 0, z: 0, w: -1}
  - {x: 1, y: 0, z: 0, w: -1}
  - {x: -1, y: 0, z: 0, w: -1}
  - {x: -1, y: 0, z: 0, w: -1}
  - {x: -1, y: 0, z: 0, w: -1}
  - {x: -1, y: 0, z: 0, w: -1}
  - {x: 1, y: 0, z: 0, w: -1}
  - {x: 1, y: 0, z: 0, w: -1}
  - {x: 1, y: 0, z: 0, w: -1}
  - {x: 1, y: 0, z: 0, w: -1}
  m_Colors: []
  m_UnwrapParameters:
    m_HardAngle: 88
    m_PackMargin: 20
    m_AngleError: 8
    m_AreaError: 15
  m_PreserveMeshAssetOnDestroy: 0
  assetGuid: 
  m_Mesh: {fileID: 0}
  m_VersionIndex: 2776
  m_IsSelectable: 1
  m_SelectedFaces: 
  m_SelectedEdges: []
  m_SelectedVertices: 
--- !u!114 &2746305242276180133
MonoBehaviour:
  m_ObjectHideFlags: 0
  m_CorrespondingSourceObject: {fileID: 0}
  m_PrefabInstance: {fileID: 0}
  m_PrefabAsset: {fileID: 0}
  m_GameObject: {fileID: 2746305242276180129}
  m_Enabled: 1
  m_EditorHideFlags: 0
  m_Script: {fileID: 11500000, guid: 1ca002da428252441b92f28d83c8a65f, type: 3}
  m_Name: 
  m_EditorClassIdentifier: 
  m_Shape:
    rid: 4274820979366821897
  m_Size: {x: 7.6920433, y: -0.9777479, z: -7.2132835}
  m_Rotation: {x: 0, y: 0, z: 0, w: 1}
  m_PivotLocation: 1
  m_PivotPosition: {x: 0, y: 0, z: 0}
  m_UnmodifiedMeshVersion: 2767
  m_ShapeBox:
    m_Center: {x: 3.8460197, y: -0.48887396, z: -3.6066437}
    m_Extent: {x: 3.8460217, y: -0.48887396, z: -3.6066418}
  references:
    version: 2
    RefIds:
    - rid: 4274820979366821897
      type: {class: Pipe, ns: UnityEngine.ProBuilder.Shapes, asm: Unity.ProBuilder}
      data:
        m_Thickness: 0.42
        m_NumberOfSides: 6
        m_HeightCuts: 0
        m_Smooth: 1
--- !u!23 &2746305242276180132
MeshRenderer:
  m_ObjectHideFlags: 0
  m_CorrespondingSourceObject: {fileID: 0}
  m_PrefabInstance: {fileID: 0}
  m_PrefabAsset: {fileID: 0}
  m_GameObject: {fileID: 2746305242276180129}
  m_Enabled: 1
  m_CastShadows: 1
  m_ReceiveShadows: 1
  m_DynamicOccludee: 1
  m_StaticShadowCaster: 0
  m_MotionVectors: 1
  m_LightProbeUsage: 1
  m_ReflectionProbeUsage: 1
  m_RayTracingMode: 2
  m_RayTraceProcedural: 0
  m_RenderingLayerMask: 1
  m_RendererPriority: 0
  m_Materials:
  - {fileID: 2100000, guid: 31321ba15b8f8eb4c954353edc038b1d, type: 2}
  m_StaticBatchInfo:
    firstSubMesh: 0
    subMeshCount: 0
  m_StaticBatchRoot: {fileID: 0}
  m_ProbeAnchor: {fileID: 0}
  m_LightProbeVolumeOverride: {fileID: 0}
  m_ScaleInLightmap: 1
  m_ReceiveGI: 1
  m_PreserveUVs: 0
  m_IgnoreNormalsForChartDetection: 0
  m_ImportantGI: 0
  m_StitchLightmapSeams: 1
  m_SelectedEditorRenderState: 2
  m_MinimumChartSize: 4
  m_AutoUVMaxDistance: 0.5
  m_AutoUVMaxAngle: 89
  m_LightmapParameters: {fileID: 0}
  m_SortingLayerID: 0
  m_SortingLayer: 0
  m_SortingOrder: 0
  m_AdditionalVertexStreams: {fileID: 0}
--- !u!33 &2746305242276180131
MeshFilter:
  m_ObjectHideFlags: 0
  m_CorrespondingSourceObject: {fileID: 0}
  m_PrefabInstance: {fileID: 0}
  m_PrefabAsset: {fileID: 0}
  m_GameObject: {fileID: 2746305242276180129}
  m_Mesh: {fileID: 0}
--- !u!64 &2746305242276180130
MeshCollider:
  m_ObjectHideFlags: 0
  m_CorrespondingSourceObject: {fileID: 0}
  m_PrefabInstance: {fileID: 0}
  m_PrefabAsset: {fileID: 0}
  m_GameObject: {fileID: 2746305242276180129}
  m_Material: {fileID: 0}
  m_IsTrigger: 0
  m_Enabled: 1
  serializedVersion: 4
  m_Convex: 0
  m_CookingOptions: 30
  m_Mesh: {fileID: 0}
--- !u!114 &7797959760527558387
MonoBehaviour:
  m_ObjectHideFlags: 0
  m_CorrespondingSourceObject: {fileID: 0}
  m_PrefabInstance: {fileID: 0}
  m_PrefabAsset: {fileID: 0}
  m_GameObject: {fileID: 2746305242276180129}
  m_Enabled: 1
  m_EditorHideFlags: 0
  m_Script: {fileID: 11500000, guid: 180ecf9b41d478f468eb3e9083753217, type: 3}
  m_Name: 
  m_EditorClassIdentifier: 
  m_ImpulseDefinition:
    m_ImpulseChannel: 1
    m_ImpulseShape: 1
    m_CustomImpulseShape:
      serializedVersion: 2
      m_Curve: []
      m_PreInfinity: 2
      m_PostInfinity: 2
      m_RotationOrder: 4
    m_ImpulseDuration: 0.2
    m_ImpulseType: 0
    m_DissipationRate: 0.25
    m_RawSignal: {fileID: 0}
    m_AmplitudeGain: 1
    m_FrequencyGain: 1
    m_RepeatMode: 0
    m_Randomize: 1
    m_TimeEnvelope:
      m_AttackShape:
        serializedVersion: 2
        m_Curve: []
        m_PreInfinity: 2
        m_PostInfinity: 2
        m_RotationOrder: 4
      m_DecayShape:
        serializedVersion: 2
        m_Curve: []
        m_PreInfinity: 2
        m_PostInfinity: 2
        m_RotationOrder: 4
      m_AttackTime: 0
      m_SustainTime: 0.2
      m_DecayTime: 0.7
      m_ScaleWithImpact: 1
      m_HoldForever: 0
    m_ImpactRadius: 100
    m_DirectionMode: 0
    m_DissipationMode: 2
    m_DissipationDistance: 100
    m_PropagationSpeed: 343
  m_DefaultVelocity: {x: 0, y: -1, z: 0}
